…
  #select flights that have arrival time(means they landed)
  filter(!is.na(arr_time)) %>% 
  select(date, arr_delay, tailnum)%>%
  group_by(tailnum) %>%
  summarise(num_flights = n(),
            avg_arr_delay = mean(arr_delay, na.rm = TRUE)
            ) %>%
  filter(num_flights >= 23) %>%
  arrange(desc(avg_arr_delay))

# ans - N203FR  41  59.12195
flights_ontime
```

    ## # A tibble: 3,057 x 3
    ##    tailnum num_flights avg_arr_delay
    ##    <chr>         <int>         <dbl>
    ##  1 N203FR           41          59.1
    ##  2 N645MQ           24          51  
    ##  3 N956AT           34          47.6
    ##  4 N988AT           35          44.3
    ##  5 N521VA           27          42.2
    ##  6 N6716C           25          40.3
    ##  7 N657MQ           36          38.5
    ##  8 N942MQ           42          38.3
    ##  9 N522VA           32          37.8
    ## 10 N987AT           26          37.4
    ## # ... with 3,047 more rows
…
flights_ontime
```

    ## # A tibble: 2,386 x 3
    ##    tailnum num_flights avg_arr_delay
    ##    <chr>         <int>         <dbl>
    ##  1 N423AS           25         -33.4
    ##  2 N388HA           26         -29.7
    ##  3 N382HA           23         -28.3
    ##  4 N402AS           29         -27.7
    ##  5 N408AS           24         -27.1
    ##  6 N384HA           24         -26.1
    ##  7 N403AS           37         -25.8
    ##  8 N419AS           25         -25.0
    ##  9 N852VA           63         -24.9
    ## 10 N4XUAA           24         -24.7
    ## # ... with 2,376 more rows
…
  #filtering only the flights that have positive delay
  filter(dep_delay > 0 & arr_delay > 0) %>%
  
  #creating time column with hour and minute
  mutate(time = paste(hour, minute, sep = ':') ) %>%
  group_by(time) %>%
  summarise(avg_delay = mean(arr_delay)) %>%
  arrange(desc(avg_delay)) %>%
  filter(min_rank(desc(avg_delay)) <= 25)

flight_hour
```

    ## # A tibble: 25 x 2
    ##    time  avg_delay
    ##    <chr>     <dbl>
    ##  1 5:58      171  
    ##  2 10:16     149. 
    ##  3 7:38      126  
    ##  4 18:48     107. 
    ##  5 22:7      105. 
    ##  6 16:9      104. 
    ##  7 16:53     103. 
    ##  8 15:51      98.5
    ##  9 12:14      95.6
    ## 10 10:27      95.2
    ## # ... with 15 more rows
…
``` r
#Q4 - For each destination, compute the total minutes of delay. For each flight, compute the proportion of the total delay for its destination.

total_delay <- flights %>%
  mutate(date = paste(month, day, year, sep = '-')) %>%
  filter(arr_delay > 0) %>%
  group_by(flight, dest) %>%
  select(dest, flight, arr_delay)%>%
  mutate(total_delay = sum(arr_delay),
         delay_prop = arr_delay/total_delay
         )
total_delay
```

    ## # A tibble: 133,004 x 5
    ## # Groups:   flight, dest [8,505]
    ##    dest  flight arr_delay total_delay delay_prop
    ##    <chr>  <int>     <dbl>       <dbl>      <dbl>
    ##  1 IAH     1545        11         348     0.0316
    ##  2 IAH     1714        20        1019     0.0196
    ##  3 MIA     1141        33         628     0.0525
    ##  4 ORD     1696        12          12     1     
    ##  5 FLL      507        19        1682     0.0113
    ##  6 ORD      301         8         555     0.0144
    ##  7 LAX      194         7           7     1     
    ##  8 DFW      707        31        1611     0.0192
    ##  9 ATL     4650        12        1084     0.0111
    ## 10 DTW     4401        16         718     0.0223
    ## # ... with 132,994 more rows
…
proportion <- flights %>%
  filter(arr_delay > 0) %>%
  group_by(dest, carrier, flight) %>%
  summarise(total_delay = sum(arr_delay)) %>%
  group_by(dest) %>%
  mutate(
    prop = total_delay / sum(total_delay)
  ) %>%
  arrange(dest, desc(prop))

proportion
```

    ## # A tibble: 8,594 x 5
    ## # Groups:   dest [103]
    ##    dest  carrier flight total_delay   prop
    ##    <chr> <chr>    <int>       <dbl>  <dbl>
    ##  1 ABQ   B6        1505        2544 0.567 
    ##  2 ABQ   B6          65        1943 0.433 
    ##  3 ACK   B6        1191        1413 0.475 
    ##  4 ACK   B6        1491        1232 0.414 
    ##  5 ACK   B6        1291         267 0.0898
    ##  6 ACK   B6        1195          62 0.0208
    ##  7 ALB   EV        4309        1668 0.174 
    ##  8 ALB   EV        4271        1315 0.137 
    ##  9 ALB   EV        4117         911 0.0951
    ## 10 ALB   EV        4088         829 0.0865
    ## # ... with 8,584 more rows
…
``` r
carat_price <- diamonds %>%
  group_by(carat) %>%
  summarise(count = n(),
            min_price = min(price),
            max_price = max(price),
            avg_price = mean(price)
            ) %>%
  arrange(carat)
carat_price
```

    ## # A tibble: 273 x 5
    ##    carat count min_price max_price avg_price
    ##    <dbl> <int>     <int>     <int>     <dbl>
    ##  1 0.2      12       345       367      365.
    ##  2 0.21      9       326       394      380.
    ##  3 0.22      5       337       470      391.
    ##  4 0.23    293       326       688      486.
    ##  5 0.24    254       336       963      505.
    ##  6 0.25    212       357      1186      551.
    ##  7 0.26    253       337       814      551.
    ##  8 0.27    233       361       893      575.
    ##  9 0.28    198       360       828      580.
    ## 10 0.290   130       334      1776      601.
    ## # ... with 263 more rows
…
``` r
#Q9 - How could you rescale the count dataset above to more clearly show the distribution of cut within colour, or colour within cut?

#given
count_dataset <- diamonds %>% 
  count(color, cut)
count_dataset 
```

    ## # A tibble: 35 x 3
    ##    color cut           n
    ##    <ord> <ord>     <int>
    ##  1 D     Fair        163
    ##  2 D     Good        662
    ##  3 D     Very Good  1513
    ##  4 D     Premium    1603
    ##  5 D     Ideal      2834
    ##  6 E     Fair        224
    ##  7 E     Good        933
    ##  8 E     Very Good  2400
    ##  9 E     Premium    2337
    ## 10 E     Ideal      3903
    ## # ... with 25 more rows

``` r
#rescaling from count to proportion/density

# Cut within colour
rescale_cutWcol <- diamonds %>%
  count(color, cut)%>%
  group_by(cut)%>%
  mutate(density = n/sum(n))

rescale_cutWcol
```

    ## # A tibble: 35 x 4
    ## # Groups:   cut [5]
    ##    color cut           n density
    ##    <ord> <ord>     <int>   <dbl>
    ##  1 D     Fair        163   0.101
    ##  2 D     Good        662   0.135
    ##  3 D     Very Good  1513   0.125
    ##  4 D     Premium    1603   0.116
    ##  5 D     Ideal      2834   0.132
    ##  6 E     Fair        224   0.139
    ##  7 E     Good        933   0.190
    ##  8 E     Very Good  2400   0.199
    ##  9 E     Premium    2337   0.169
    ## 10 E     Ideal      3903   0.181
    ## # ... with 25 more rows
…
``` r
# Colour within cut
rescale_colWcut <- diamonds %>%
  count(color, cut)%>%
  group_by(color)%>%
  mutate(density = n/sum(n))

rescale_colWcut
```

    ## # A tibble: 35 x 4
    ## # Groups:   color [7]
    ##    color cut           n density
    ##    <ord> <ord>     <int>   <dbl>
    ##  1 D     Fair        163  0.0241
    ##  2 D     Good        662  0.0977
    ##  3 D     Very Good  1513  0.223 
    ##  4 D     Premium    1603  0.237 
    ##  5 D     Ideal      2834  0.418 
    ##  6 E     Fair        224  0.0229
    ##  7 E     Good        933  0.0952
    ##  8 E     Very Good  2400  0.245 
    ##  9 E     Premium    2337  0.239 
    ## 10 E     Ideal      3903  0.398 
    ## # ... with 25 more rows
…
It is as I expected and did not surprise me since it is known from
multiple previous questions here and personal knowledge that the size of
the diamond directly effects the price of the
diamond.

``` r
#Q13 - How does the price distribution of very large diamonds compare to small diamonds? Is it as you expect, or does it surprise you?

price_distribution <- diamonds %>%
  arrange(desc(price)) %>%
  select(carat, depth, price, x, y, z)
price_distribution
```

    ## # A tibble: 53,940 x 6
    ##    carat depth price     x     y     z
    ##    <dbl> <dbl> <int> <dbl> <dbl> <dbl>
    ##  1  2.29  60.8 18823  8.5   8.47  5.16
    ##  2  2     63.5 18818  7.9   7.97  5.04
    ##  3  1.51  61.7 18806  7.37  7.41  4.56
    ##  4  2.07  62.5 18804  8.2   8.13  5.11
    ##  5  2     62.8 18803  7.95  8     5.01
    ##  6  2.29  61.8 18797  8.52  8.45  5.24
    ##  7  2.04  58.1 18795  8.37  8.28  4.84
    ##  8  2     60.8 18795  8.13  8.02  4.91
    ##  9  1.71  62.3 18791  7.57  7.53  4.7 
    ## 10  2.15  62.6 18791  8.29  8.35  5.21
    ## # ... with 53,930 more rows
…
